<mxfile host="app.diagrams.net" modified="2022-12-02T01:58:01.972Z" agent="5.0 (X11)" version="20.6.0" etag="GsCmnkSgaXcZJaOQ3ekI" type="gitlab">
  <diagram id="fOE8WAFKyx1zbjbIDNHP" name="Page-1">
    <mxGraphModel dx="1673" dy="933" grid="1" gridSize="10" guides="1" tooltips="1" connect="1" arrows="1" fold="1" page="1" pageScale="1" pageWidth="850" pageHeight="1100" math="0" shadow="0">
      <root>
        <mxCell id="0" />
        <mxCell id="1" parent="0" />
        <mxCell id="CasIUAQd7r_ksBviVqew-1" value="EntradaVeículo&#xa;" style="swimlane;fontStyle=1;align=center;verticalAlign=top;childLayout=stackLayout;horizontal=1;startSize=26;horizontalStack=0;resizeParent=1;resizeParentMax=0;resizeLast=0;collapsible=1;marginBottom=0;" vertex="1" parent="1">
          <mxGeometry x="170" y="370" width="320" height="268" as="geometry" />
        </mxCell>
        <mxCell id="CasIUAQd7r_ksBviVqew-2" value="- placa: string" style="text;strokeColor=none;fillColor=none;align=left;verticalAlign=top;spacingLeft=4;spacingRight=4;overflow=hidden;rotatable=0;points=[[0,0.5],[1,0.5]];portConstraint=eastwest;" vertex="1" parent="CasIUAQd7r_ksBviVqew-1">
          <mxGeometry y="26" width="320" height="26" as="geometry" />
        </mxCell>
        <mxCell id="CasIUAQd7r_ksBviVqew-10" value="- modelo: string" style="text;strokeColor=none;fillColor=none;align=left;verticalAlign=top;spacingLeft=4;spacingRight=4;overflow=hidden;rotatable=0;points=[[0,0.5],[1,0.5]];portConstraint=eastwest;" vertex="1" parent="CasIUAQd7r_ksBviVqew-1">
          <mxGeometry y="52" width="320" height="26" as="geometry" />
        </mxCell>
        <mxCell id="CasIUAQd7r_ksBviVqew-9" value="- cor: string" style="text;strokeColor=none;fillColor=none;align=left;verticalAlign=top;spacingLeft=4;spacingRight=4;overflow=hidden;rotatable=0;points=[[0,0.5],[1,0.5]];portConstraint=eastwest;" vertex="1" parent="CasIUAQd7r_ksBviVqew-1">
          <mxGeometry y="78" width="320" height="26" as="geometry" />
        </mxCell>
        <mxCell id="CasIUAQd7r_ksBviVqew-12" value="- horario (DateLocalTime)" style="text;strokeColor=none;fillColor=none;align=left;verticalAlign=top;spacingLeft=4;spacingRight=4;overflow=hidden;rotatable=0;points=[[0,0.5],[1,0.5]];portConstraint=eastwest;" vertex="1" parent="CasIUAQd7r_ksBviVqew-1">
          <mxGeometry y="104" width="320" height="26" as="geometry" />
        </mxCell>
        <mxCell id="CasIUAQd7r_ksBviVqew-25" value="- horarioSaida (DateLocaltime)" style="text;strokeColor=none;fillColor=none;align=left;verticalAlign=top;spacingLeft=4;spacingRight=4;overflow=hidden;rotatable=0;points=[[0,0.5],[1,0.5]];portConstraint=eastwest;" vertex="1" parent="CasIUAQd7r_ksBviVqew-1">
          <mxGeometry y="130" width="320" height="26" as="geometry" />
        </mxCell>
        <mxCell id="CasIUAQd7r_ksBviVqew-3" value="" style="line;strokeWidth=1;fillColor=none;align=left;verticalAlign=middle;spacingTop=-1;spacingLeft=3;spacingRight=3;rotatable=0;labelPosition=right;points=[];portConstraint=eastwest;strokeColor=inherit;" vertex="1" parent="CasIUAQd7r_ksBviVqew-1">
          <mxGeometry y="156" width="320" height="8" as="geometry" />
        </mxCell>
        <mxCell id="CasIUAQd7r_ksBviVqew-4" value="+ getModelo(): string" style="text;strokeColor=none;fillColor=none;align=left;verticalAlign=top;spacingLeft=4;spacingRight=4;overflow=hidden;rotatable=0;points=[[0,0.5],[1,0.5]];portConstraint=eastwest;" vertex="1" parent="CasIUAQd7r_ksBviVqew-1">
          <mxGeometry y="164" width="320" height="26" as="geometry" />
        </mxCell>
        <mxCell id="CasIUAQd7r_ksBviVqew-5" value="+ getPlaca(): string" style="text;strokeColor=none;fillColor=none;align=left;verticalAlign=top;spacingLeft=4;spacingRight=4;overflow=hidden;rotatable=0;points=[[0,0.5],[1,0.5]];portConstraint=eastwest;" vertex="1" parent="CasIUAQd7r_ksBviVqew-1">
          <mxGeometry y="190" width="320" height="26" as="geometry" />
        </mxCell>
        <mxCell id="CasIUAQd7r_ksBviVqew-6" value="+ getCor(): string" style="text;strokeColor=none;fillColor=none;align=left;verticalAlign=top;spacingLeft=4;spacingRight=4;overflow=hidden;rotatable=0;points=[[0,0.5],[1,0.5]];portConstraint=eastwest;" vertex="1" parent="CasIUAQd7r_ksBviVqew-1">
          <mxGeometry y="216" width="320" height="26" as="geometry" />
        </mxCell>
        <mxCell id="CasIUAQd7r_ksBviVqew-33" value="+ getHorarioEntrada(): DateLocalTime" style="text;strokeColor=none;fillColor=none;align=left;verticalAlign=top;spacingLeft=4;spacingRight=4;overflow=hidden;rotatable=0;points=[[0,0.5],[1,0.5]];portConstraint=eastwest;" vertex="1" parent="CasIUAQd7r_ksBviVqew-1">
          <mxGeometry y="242" width="320" height="26" as="geometry" />
        </mxCell>
        <mxCell id="CasIUAQd7r_ksBviVqew-17" value="Cliente" style="swimlane;fontStyle=1;align=center;verticalAlign=top;childLayout=stackLayout;horizontal=1;startSize=26;horizontalStack=0;resizeParent=1;resizeParentMax=0;resizeLast=0;collapsible=1;marginBottom=0;" vertex="1" parent="1">
          <mxGeometry x="820" y="370" width="330" height="216" as="geometry" />
        </mxCell>
        <mxCell id="CasIUAQd7r_ksBviVqew-18" value="- nome: string" style="text;strokeColor=none;fillColor=none;align=left;verticalAlign=top;spacingLeft=4;spacingRight=4;overflow=hidden;rotatable=0;points=[[0,0.5],[1,0.5]];portConstraint=eastwest;" vertex="1" parent="CasIUAQd7r_ksBviVqew-17">
          <mxGeometry y="26" width="330" height="26" as="geometry" />
        </mxCell>
        <mxCell id="CasIUAQd7r_ksBviVqew-24" value="- endereço: string" style="text;strokeColor=none;fillColor=none;align=left;verticalAlign=top;spacingLeft=4;spacingRight=4;overflow=hidden;rotatable=0;points=[[0,0.5],[1,0.5]];portConstraint=eastwest;" vertex="1" parent="CasIUAQd7r_ksBviVqew-17">
          <mxGeometry y="52" width="330" height="26" as="geometry" />
        </mxCell>
        <mxCell id="CasIUAQd7r_ksBviVqew-23" value="- email: string" style="text;strokeColor=none;fillColor=none;align=left;verticalAlign=top;spacingLeft=4;spacingRight=4;overflow=hidden;rotatable=0;points=[[0,0.5],[1,0.5]];portConstraint=eastwest;" vertex="1" parent="CasIUAQd7r_ksBviVqew-17">
          <mxGeometry y="78" width="330" height="26" as="geometry" />
        </mxCell>
        <mxCell id="CasIUAQd7r_ksBviVqew-22" value="- telefone: long" style="text;strokeColor=none;fillColor=none;align=left;verticalAlign=top;spacingLeft=4;spacingRight=4;overflow=hidden;rotatable=0;points=[[0,0.5],[1,0.5]];portConstraint=eastwest;" vertex="1" parent="CasIUAQd7r_ksBviVqew-17">
          <mxGeometry y="104" width="330" height="26" as="geometry" />
        </mxCell>
        <mxCell id="CasIUAQd7r_ksBviVqew-21" value="- comprovanteAtual: EntradaVeículo" style="text;strokeColor=none;fillColor=none;align=left;verticalAlign=top;spacingLeft=4;spacingRight=4;overflow=hidden;rotatable=0;points=[[0,0.5],[1,0.5]];portConstraint=eastwest;" vertex="1" parent="CasIUAQd7r_ksBviVqew-17">
          <mxGeometry y="130" width="330" height="26" as="geometry" />
        </mxCell>
        <mxCell id="CasIUAQd7r_ksBviVqew-19" value="" style="line;strokeWidth=1;fillColor=none;align=left;verticalAlign=middle;spacingTop=-1;spacingLeft=3;spacingRight=3;rotatable=0;labelPosition=right;points=[];portConstraint=eastwest;strokeColor=inherit;" vertex="1" parent="CasIUAQd7r_ksBviVqew-17">
          <mxGeometry y="156" width="330" height="8" as="geometry" />
        </mxCell>
        <mxCell id="CasIUAQd7r_ksBviVqew-20" value="+ getHorarioSaida(): DateLocalTime" style="text;strokeColor=none;fillColor=none;align=left;verticalAlign=top;spacingLeft=4;spacingRight=4;overflow=hidden;rotatable=0;points=[[0,0.5],[1,0.5]];portConstraint=eastwest;" vertex="1" parent="CasIUAQd7r_ksBviVqew-17">
          <mxGeometry y="164" width="330" height="26" as="geometry" />
        </mxCell>
        <mxCell id="CasIUAQd7r_ksBviVqew-35" value="+ gerarComprovantePagamento(): EntradaVeículo" style="text;strokeColor=none;fillColor=none;align=left;verticalAlign=top;spacingLeft=4;spacingRight=4;overflow=hidden;rotatable=0;points=[[0,0.5],[1,0.5]];portConstraint=eastwest;" vertex="1" parent="CasIUAQd7r_ksBviVqew-17">
          <mxGeometry y="190" width="330" height="26" as="geometry" />
        </mxCell>
        <mxCell id="CasIUAQd7r_ksBviVqew-26" value="Vaga" style="swimlane;fontStyle=1;align=center;verticalAlign=top;childLayout=stackLayout;horizontal=1;startSize=26;horizontalStack=0;resizeParent=1;resizeParentMax=0;resizeLast=0;collapsible=1;marginBottom=0;" vertex="1" parent="1">
          <mxGeometry x="170" y="90" width="230" height="112" as="geometry" />
        </mxCell>
        <mxCell id="CasIUAQd7r_ksBviVqew-27" value="- ocupdado: boolean" style="text;strokeColor=none;fillColor=none;align=left;verticalAlign=top;spacingLeft=4;spacingRight=4;overflow=hidden;rotatable=0;points=[[0,0.5],[1,0.5]];portConstraint=eastwest;" vertex="1" parent="CasIUAQd7r_ksBviVqew-26">
          <mxGeometry y="26" width="230" height="26" as="geometry" />
        </mxCell>
        <mxCell id="CasIUAQd7r_ksBviVqew-28" value="" style="line;strokeWidth=1;fillColor=none;align=left;verticalAlign=middle;spacingTop=-1;spacingLeft=3;spacingRight=3;rotatable=0;labelPosition=right;points=[];portConstraint=eastwest;strokeColor=inherit;" vertex="1" parent="CasIUAQd7r_ksBviVqew-26">
          <mxGeometry y="52" width="230" height="8" as="geometry" />
        </mxCell>
        <mxCell id="CasIUAQd7r_ksBviVqew-29" value="+ getOcupado(): boolean&#xa;" style="text;strokeColor=none;fillColor=none;align=left;verticalAlign=top;spacingLeft=4;spacingRight=4;overflow=hidden;rotatable=0;points=[[0,0.5],[1,0.5]];portConstraint=eastwest;" vertex="1" parent="CasIUAQd7r_ksBviVqew-26">
          <mxGeometry y="60" width="230" height="26" as="geometry" />
        </mxCell>
        <mxCell id="CasIUAQd7r_ksBviVqew-31" value="+ setOcupado(cliente_saiu): void" style="text;strokeColor=none;fillColor=none;align=left;verticalAlign=top;spacingLeft=4;spacingRight=4;overflow=hidden;rotatable=0;points=[[0,0.5],[1,0.5]];portConstraint=eastwest;" vertex="1" parent="CasIUAQd7r_ksBviVqew-26">
          <mxGeometry y="86" width="230" height="26" as="geometry" />
        </mxCell>
        <mxCell id="CasIUAQd7r_ksBviVqew-49" value="AtendenteDeEstacionamentoPainel" style="swimlane;fontStyle=1;align=center;verticalAlign=top;childLayout=stackLayout;horizontal=1;startSize=26;horizontalStack=0;resizeParent=1;resizeParentMax=0;resizeLast=0;collapsible=1;marginBottom=0;" vertex="1" parent="1">
          <mxGeometry x="820" y="70" width="350" height="112" as="geometry" />
        </mxCell>
        <mxCell id="CasIUAQd7r_ksBviVqew-50" value="- " style="text;strokeColor=none;fillColor=none;align=left;verticalAlign=top;spacingLeft=4;spacingRight=4;overflow=hidden;rotatable=0;points=[[0,0.5],[1,0.5]];portConstraint=eastwest;" vertex="1" parent="CasIUAQd7r_ksBviVqew-49">
          <mxGeometry y="26" width="350" height="26" as="geometry" />
        </mxCell>
        <mxCell id="CasIUAQd7r_ksBviVqew-51" value="" style="line;strokeWidth=1;fillColor=none;align=left;verticalAlign=middle;spacingTop=-1;spacingLeft=3;spacingRight=3;rotatable=0;labelPosition=right;points=[];portConstraint=eastwest;strokeColor=inherit;" vertex="1" parent="CasIUAQd7r_ksBviVqew-49">
          <mxGeometry y="52" width="350" height="8" as="geometry" />
        </mxCell>
        <mxCell id="CasIUAQd7r_ksBviVqew-64" value="+ cadastraCliente(): Cliente" style="text;strokeColor=none;fillColor=none;align=left;verticalAlign=top;spacingLeft=4;spacingRight=4;overflow=hidden;rotatable=0;points=[[0,0.5],[1,0.5]];portConstraint=eastwest;" vertex="1" parent="CasIUAQd7r_ksBviVqew-49">
          <mxGeometry y="60" width="350" height="26" as="geometry" />
        </mxCell>
        <mxCell id="CasIUAQd7r_ksBviVqew-53" value="+ gerarComprovanteEstacionamento(Cliente): EntradaVeiculo" style="text;strokeColor=none;fillColor=none;align=left;verticalAlign=top;spacingLeft=4;spacingRight=4;overflow=hidden;rotatable=0;points=[[0,0.5],[1,0.5]];portConstraint=eastwest;" vertex="1" parent="CasIUAQd7r_ksBviVqew-49">
          <mxGeometry y="86" width="350" height="26" as="geometry" />
        </mxCell>
        <mxCell id="CasIUAQd7r_ksBviVqew-56" value="" style="endArrow=none;html=1;edgeStyle=orthogonalEdgeStyle;rounded=0;exitX=1.013;exitY=-0.038;exitDx=0;exitDy=0;exitPerimeter=0;entryX=-0.009;entryY=1.038;entryDx=0;entryDy=0;entryPerimeter=0;" edge="1" parent="1" source="CasIUAQd7r_ksBviVqew-4" target="CasIUAQd7r_ksBviVqew-21">
          <mxGeometry relative="1" as="geometry">
            <mxPoint x="580" y="500" as="sourcePoint" />
            <mxPoint x="740" y="500" as="targetPoint" />
            <Array as="points">
              <mxPoint x="494" y="527" />
            </Array>
          </mxGeometry>
        </mxCell>
        <mxCell id="CasIUAQd7r_ksBviVqew-57" value="&lt;div&gt;1..*&lt;/div&gt;" style="edgeLabel;resizable=0;html=1;align=left;verticalAlign=bottom;" connectable="0" vertex="1" parent="CasIUAQd7r_ksBviVqew-56">
          <mxGeometry x="-1" relative="1" as="geometry">
            <mxPoint x="6" y="-13" as="offset" />
          </mxGeometry>
        </mxCell>
        <mxCell id="CasIUAQd7r_ksBviVqew-58" value="1" style="edgeLabel;resizable=0;html=1;align=right;verticalAlign=bottom;" connectable="0" vertex="1" parent="CasIUAQd7r_ksBviVqew-56">
          <mxGeometry x="1" relative="1" as="geometry">
            <mxPoint x="-7" y="-7" as="offset" />
          </mxGeometry>
        </mxCell>
        <mxCell id="CasIUAQd7r_ksBviVqew-60" value="É propriedade de " style="html=1;verticalAlign=bottom;endArrow=block;rounded=0;targetPerimeterSpacing=0;endSize=16;" edge="1" parent="1">
          <mxGeometry width="80" relative="1" as="geometry">
            <mxPoint x="630" y="510" as="sourcePoint" />
            <mxPoint x="750" y="510" as="targetPoint" />
          </mxGeometry>
        </mxCell>
        <mxCell id="CasIUAQd7r_ksBviVqew-61" value="" style="endArrow=none;html=1;edgeStyle=orthogonalEdgeStyle;rounded=0;endSize=16;targetPerimeterSpacing=0;entryX=0.735;entryY=1.038;entryDx=0;entryDy=0;entryPerimeter=0;" edge="1" parent="1" source="CasIUAQd7r_ksBviVqew-1" target="CasIUAQd7r_ksBviVqew-31">
          <mxGeometry relative="1" as="geometry">
            <mxPoint x="590" y="430" as="sourcePoint" />
            <mxPoint x="310" y="230" as="targetPoint" />
          </mxGeometry>
        </mxCell>
        <mxCell id="CasIUAQd7r_ksBviVqew-62" value="1" style="edgeLabel;resizable=0;html=1;align=left;verticalAlign=bottom;" connectable="0" vertex="1" parent="CasIUAQd7r_ksBviVqew-61">
          <mxGeometry x="-1" relative="1" as="geometry">
            <mxPoint x="-10" y="-140" as="offset" />
          </mxGeometry>
        </mxCell>
        <mxCell id="CasIUAQd7r_ksBviVqew-63" value="&lt;div&gt;1...*&lt;/div&gt;" style="edgeLabel;resizable=0;html=1;align=right;verticalAlign=bottom;" connectable="0" vertex="1" parent="CasIUAQd7r_ksBviVqew-61">
          <mxGeometry x="1" relative="1" as="geometry">
            <mxPoint x="-19" y="157" as="offset" />
          </mxGeometry>
        </mxCell>
        <mxCell id="CasIUAQd7r_ksBviVqew-65" value="Ocupa" style="html=1;verticalAlign=bottom;endArrow=block;rounded=0;targetPerimeterSpacing=0;endSize=16;" edge="1" parent="1">
          <mxGeometry width="80" relative="1" as="geometry">
            <mxPoint x="284.5" y="330" as="sourcePoint" />
            <mxPoint x="284.5" y="230" as="targetPoint" />
          </mxGeometry>
        </mxCell>
        <mxCell id="CasIUAQd7r_ksBviVqew-69" value="" style="endArrow=none;html=1;edgeStyle=orthogonalEdgeStyle;rounded=0;endSize=16;targetPerimeterSpacing=0;entryX=0.485;entryY=1.037;entryDx=0;entryDy=0;entryPerimeter=0;exitX=0.513;exitY=0.007;exitDx=0;exitDy=0;exitPerimeter=0;" edge="1" parent="1" source="CasIUAQd7r_ksBviVqew-17" target="CasIUAQd7r_ksBviVqew-53">
          <mxGeometry relative="1" as="geometry">
            <mxPoint x="980" y="357.01" as="sourcePoint" />
            <mxPoint x="989.05" y="189.99800000000005" as="targetPoint" />
          </mxGeometry>
        </mxCell>
        <mxCell id="CasIUAQd7r_ksBviVqew-70" value="1" style="edgeLabel;resizable=0;html=1;align=left;verticalAlign=bottom;" connectable="0" vertex="1" parent="CasIUAQd7r_ksBviVqew-69">
          <mxGeometry x="-1" relative="1" as="geometry">
            <mxPoint x="-19" y="-162" as="offset" />
          </mxGeometry>
        </mxCell>
        <mxCell id="CasIUAQd7r_ksBviVqew-71" value="0..*" style="edgeLabel;resizable=0;html=1;align=right;verticalAlign=bottom;" connectable="0" vertex="1" parent="CasIUAQd7r_ksBviVqew-69">
          <mxGeometry x="1" relative="1" as="geometry">
            <mxPoint x="-10" y="177" as="offset" />
          </mxGeometry>
        </mxCell>
        <mxCell id="CasIUAQd7r_ksBviVqew-72" value="É atendido " style="html=1;verticalAlign=bottom;endArrow=block;rounded=0;targetPerimeterSpacing=0;endSize=16;" edge="1" parent="1">
          <mxGeometry width="80" relative="1" as="geometry">
            <mxPoint x="940" y="332" as="sourcePoint" />
            <mxPoint x="940" y="202" as="targetPoint" />
          </mxGeometry>
        </mxCell>
      </root>
    </mxGraphModel>
  </diagram>
</mxfile>
